Complete_Pipeline/waveform.vcd
$date
	Mon Nov 20 15:14:40 2023
$end
$version
	Icarus Verilog
$end
$timescale
	1ps
$end
$scope module top_module_tb $end
$var wire 1 ! wr $end
$var wire 32 " result [31:0] $end
$var wire 1 # rd $end
$var wire 32 $ i_data [31:0] $end
$var wire 32 % i_addr [31:0] $end
$var wire 32 & d_data [31:0] $end
$var wire 32 ' d_addr [31:0] $end
$var wire 1 ( cs_i_n $end
$var wire 1 ) cs_d_n $end
$var wire 32 * Data_write [31:0] $end
$var wire 32 + DataOut_WB [31:0] $end
$var reg 1 , clk $end
$var reg 1 - rst_n $end
$scope module DUT $end
$var wire 1 , clk $end
$var wire 1 - rst_n $end
$var wire 1 ! wr $end
$var wire 32 . result [31:0] $end
$var wire 1 # rd $end
$var wire 32 / i_data [31:0] $end
$var wire 32 0 i_addr [31:0] $end
$var wire 32 1 d_data [31:0] $end
$var wire 32 2 d_addr [31:0] $end
$var wire 1 ( cs_i_n $end
$var wire 1 ) cs_d_n $end
$var wire 32 3 Data_write [31:0] $end
$var wire 32 4 DataOut_WB [31:0] $end
$scope module M0 $end
$var wire 1 , clk $end
$var wire 1 - rst_n $end
$var wire 1 ! wr $end
$var wire 2 5 wos_MEM [1:0] $end
$var wire 2 6 wos_EX [1:0] $end
$var wire 2 7 wos [1:0] $end
$var wire 2 8 whb_MEM [1:0] $end
$var wire 2 9 whb_EX [1:0] $end
$var wire 2 : whb [1:0] $end
$var wire 1 ; su_MEM $end
$var wire 1 < su_EX $end
$var wire 1 = su $end
$var wire 32 > result_MEM [31:0] $end
$var wire 32 ? result [31:0] $end
$var wire 1 # rd $end
$var wire 7 @ opcode_MEM [6:0] $end
$var wire 7 A opcode_EX [6:0] $end
$var wire 7 B opcode [6:0] $end
$var wire 1 C ltu_MEM $end
$var wire 1 D ltu $end
$var wire 1 E lt_MEM $end
$var wire 1 F lt $end
$var wire 1 G jalr $end
$var wire 32 H instrCode [31:0] $end
$var wire 32 I immOut_EX [31:0] $end
$var wire 32 J immOut [31:0] $end
$var wire 32 K i_data [31:0] $end
$var wire 32 L i_addr [31:0] $end
$var wire 3 M func3 [2:0] $end
$var wire 32 N d_data [31:0] $end
$var wire 32 O d_addr [31:0] $end
$var wire 1 ( cs_i_n $end
$var wire 1 ) cs_d_n $end
$var wire 4 P alu_ctrl [3:0] $end
$var wire 32 Q Read2 [31:0] $end
$var wire 32 R Read1 [31:0] $end
$var wire 1 S PC_src $end
$var wire 32 T PC_IF [31:0] $end
$var wire 32 U PC_ID [31:0] $end
$var wire 32 V PC_4_MEM [31:0] $end
$var wire 32 W PC_4_IF [31:0] $end
$var wire 32 X PC_4_ID [31:0] $end
$var wire 32 Y PC_4_EX [31:0] $end
$var wire 32 Z Data_write [31:0] $end
$var wire 32 [ Data_store [31:0] $end
$var wire 32 \ Data_out_MEM [31:0] $end
$var wire 32 ] DataOut_WB [31:0] $end
$scope module M0 $end
$var wire 32 ^ PC_4_IF [31:0] $end
$var wire 32 _ PC_IF [31:0] $end
$var wire 1 , clk $end
$var wire 32 ` instrCode [31:0] $end
$var wire 1 - rst $end
$var wire 32 a result_EX [31:0] $end
$var wire 1 G jalr $end
$var wire 32 b instr_read [31:0] $end
$var wire 32 c immOut_EX [31:0] $end
$var wire 32 d i_addr [31:0] $end
$var wire 1 ( cs_i_n $end
$var wire 1 S PC_src $end
$var wire 32 e PC_next [31:0] $end
$var wire 32 f PC_imm [31:0] $end
$var wire 32 g PC_4 [31:0] $end
$var reg 32 h PC [31:0] $end
$upscope $end
$scope module M1 $end
$var wire 32 i PC [31:0] $end
$var wire 32 j PC_4 [31:0] $end
$var wire 32 k PC_4_ID [31:0] $end
$var wire 32 l PC_ID [31:0] $end
$var wire 32 m Read1 [31:0] $end
$var wire 32 n Read2 [31:0] $end
$var wire 1 , clk $end
$var wire 32 o instrCode [31:0] $end
$var wire 1 - rst $end
$var wire 2 p wos [1:0] $end
$var wire 2 q whb [1:0] $end
$var wire 1 = su $end
$var wire 5 r rs2 [4:0] $end
$var wire 5 s rs1 [4:0] $end
$var wire 5 t rd [4:0] $end
$var wire 7 u opcode [6:0] $end
$var wire 32 v immOut [31:0] $end
$var wire 12 w imm [11:0] $end
$var wire 3 x func3 [2:0] $end
$var wire 4 y alu_ctrl [3:0] $end
$var wire 1 z RegWrite $end
$var wire 32 { Data_WB [31:0] $end
$var wire 32 | B_ext [31:0] $end
$var wire 32 } B [31:0] $end
$var wire 32 ~ A [31:0] $end
$scope module CONTROL_UNIT $end
$var wire 32 !" instr [31:0] $end
$var wire 7 "" opcode [6:0] $end
$var wire 7 #" func7 [6:0] $end
$var wire 3 $" func3 [2:0] $end
$var reg 4 %" alu_ctrl [3:0] $end
$var reg 1 = su $end
$var reg 2 &" whb [1:0] $end
$var reg 2 '" wos [1:0] $end
$upscope $end
$scope module IMM_GEN $end
$var wire 32 (" instr [31:0] $end
$var wire 7 )" opcode [6:0] $end
$var wire 32 *" immOut [31:0] $end
$var wire 3 +" func3 [2:0] $end
$var reg 12 ," imm [11:0] $end
$var reg 20 -" imm_j_u [19:0] $end
$upscope $end
$scope module REG_FILE $end
$var wire 5 ." ReadAddr1 [4:0] $end
$var wire 5 /" ReadAddr2 [4:0] $end
$var wire 32 0" ReadData1 [31:0] $end
$var wire 32 1" ReadData2 [31:0] $end
$var wire 1 z RegWrite $end
$var wire 5 2" WriteAddr [4:0] $end
$var wire 1 , clk $end
$var wire 1 - rst $end
$var wire 32 3" WriteData [31:0] $end
$var integer 32 4" fd [31:0] $end
$var integer 32 5" i [31:0] $end
$upscope $end
$scope module STORE_WHB $end
$var wire 32 6" data [31:0] $end
$var wire 2 7" whb [1:0] $end
$var wire 32 8" data_op [31:0] $end
$upscope $end
$upscope $end
$scope module M2 $end
$var wire 32 9" Data_store [31:0] $end
$var wire 32 :" PC [31:0] $end
$var wire 32 ;" PC_4 [31:0] $end
$var wire 32 <" PC_4_EX [31:0] $end
$var wire 32 =" Read1 [31:0] $end
$var wire 32 >" Read2 [31:0] $end
$var wire 4 ?" alu_ctrl [3:0] $end
$var wire 1 , clk $end
$var wire 3 @" func3 [2:0] $end
$var wire 32 A" immOut [31:0] $end
$var wire 32 B" immOut_EX [31:0] $end
$var wire 7 C" opcode [6:0] $end
$var wire 7 D" opcode_EX [6:0] $end
$var wire 1 - rst $end
$var wire 1 = su $end
$var wire 1 < su_EX $end
$var wire 2 E" whb [1:0] $end
$var wire 2 F" whb_EX [1:0] $end
$var wire 2 G" wos [1:0] $end
$var wire 2 H" wos_EX [1:0] $end
$var wire 1 I" zero $end
$var wire 32 J" result [31:0] $end
$var wire 1 D ltu $end
$var wire 1 F lt $end
$var wire 1 G jalr $end
$var wire 1 K" boj $end
$var wire 1 S PC_src $end
$var wire 32 L" Bi [31:0] $end
$var wire 32 M" Ai [31:0] $end
$scope module ALU $end
$var wire 32 N" A [31:0] $end
$var wire 32 O" B [31:0] $end
$var wire 4 P" alu_ctrl [3:0] $end
$var wire 1 I" zero $end
$var wire 1 D ltu $end
$var wire 1 F lt $end
$var reg 33 Q" AU [32:0] $end
$var reg 33 R" BU [32:0] $end
$var reg 32 S" result [31:0] $end
$var reg 33 T" resultu [32:0] $end
$upscope $end
$scope module BRANCH_JUMP $end
$var wire 1 K" boj $end
$var wire 3 U" func3 [2:0] $end
$var wire 1 F lt $end
$var wire 1 D ltu $end
$var wire 7 V" opcode [6:0] $end
$var wire 1 I" zero $end
$var reg 1 S PC_src $end
$upscope $end
$upscope $end
$scope module M3 $end
$var wire 32 W" Data_out_MEM [31:0] $end
$var wire 32 X" Data_store [31:0] $end
$var wire 32 Y" PC_4 [31:0] $end
$var wire 32 Z" PC_4_MEM [31:0] $end
$var wire 1 , clk $end
$var wire 1 F lt $end
$var wire 1 E lt_MEM $end
$var wire 1 D ltu $end
$var wire 1 C ltu_MEM $end
$var wire 7 [" opcode [6:0] $end
$var wire 7 \" opcode_MEM [6:0] $end
$var wire 32 ]" result [31:0] $end
$var wire 32 ^" result_MEM [31:0] $end
$var wire 1 - rst $end
$var wire 1 < su $end
$var wire 1 ; su_MEM $end
$var wire 2 _" whb [1:0] $end
$var wire 2 `" whb_MEM [1:0] $end
$var wire 2 a" wos [1:0] $end
$var wire 2 b" wos_MEM [1:0] $end
$var wire 1 ! wr $end
$var wire 1 # rd $end
$var wire 32 c" d_addr [31:0] $end
$var wire 1 ) cs_d_n $end
$var wire 32 d" Data_write [31:0] $end
$var wire 32 e" Data_read [31:0] $end
$upscope $end
$scope module M4 $end
$var wire 32 f" DataOut_WB [31:0] $end
$var wire 32 g" PC_4 [31:0] $end
$var wire 1 , clk $end
$var wire 1 E lt $end
$var wire 1 C ltu $end
$var wire 7 h" opcode [6:0] $end
$var wire 32 i" result [31:0] $end
$var wire 1 - rst $end
$var wire 1 ; su $end
$var wire 2 j" whb [1:0] $end
$var wire 2 k" wos [1:0] $end
$var wire 32 l" set [31:0] $end
$var wire 32 m" read_data [31:0] $end
$var wire 32 n" WriteData_ext_set [31:0] $end
$var wire 32 o" WriteData_ext [31:0] $end
$var wire 32 p" WriteBackData [31:0] $end
$scope module SIGNEXT $end
$var wire 32 q" data [31:0] $end
$var wire 1 ; su $end
$var wire 2 r" whb [1:0] $end
$var wire 32 s" data_op [31:0] $end
$upscope $end
$upscope $end
$upscope $end
$scope module M1 $end
$var wire 1 , clk $end
$var wire 1 ( cs_n $end
$var wire 32 t" iaddr [31:0] $end
$var wire 1 - rst $end
$var reg 32 u" instrCode [31:0] $end
$upscope $end
$scope module M2 $end
$var wire 32 v" addr [31:0] $end
$var wire 1 , clk $end
$var wire 1 ) cs_n $end
$var wire 1 # rd $end
$var wire 1 - rst $end
$var wire 1 ! wr $end
$var wire 32 w" write_data [31:0] $end
$var wire 32 x" read_data [31:0] $end
$var integer 32 y" fd [31:0] $end
$var integer 32 z" i [31:0] $end
$upscope $end
$upscope $end
$upscope $end
$enddefinitions $end
#0
$dumpvars
b100000000000000000000 z"
bx y"
bx x"
bx w"
bx v"
bx u"
bz t"
bx s"
bx r"
bx q"
bx p"
bx o"
bx n"
bx m"
b0x l"
bx k"
bx j"
bx i"
bx h"
bx g"
bx f"
bx e"
bx d"
bx c"
bx b"
bx a"
bx `"
bx _"
bx ^"
bx ]"
bx \"
bx ["
bx Z"
bx Y"
bx X"
bx W"
bx V"
bx U"
bx T"
bx S"
bx R"
bx Q"
bx P"
bx O"
bx N"
bx M"
bx L"
xK"
bx J"
xI"
bx H"
bx G"
bx F"
bx E"
bx D"
bx C"
b0 B"
b0 A"
bx @"
bx ?"
bx >"
bx ="
bx <"
bx ;"
bx :"
bx 9"
bx 8"
bx 7"
bx 6"
bx 5"
bx 4"
bx 3"
bx 2"
bx 1"
bx 0"
bx /"
bx ."
b0 -"
b0 ,"
bx +"
b0 *"
bx )"
bx ("
bx '"
bx &"
bx %"
bx $"
bx #"
bx ""
bx !"
bx ~
bx }
bx |
bx {
xz
bx y
bx x
bx w
b0 v
bx u
bx t
bx s
bx r
bx q
bx p
bx o
bx n
bx m
bx l
bx k
bx j
bx i
bx h
bx g
bx f
bx e
bz d
b0 c
bx b
bx a
bx `
bx _
bx ^
bx ]
bx \
bx [
bx Z
bx Y
bx X
bx W
bx V
bx U
bx T
0S
bx R
bx Q
bx P
bx O
bx N
bx M
bz L
bx K
b0 J
b0 I
bx H
xG
xF
xE
xD
xC
bx B
bx A
bx @
bx ?
bx >
x=
x<
x;
bx :
bx 9
bx 8
bx 7
bx 6
bx 5
bx 4
bx 3
bx 2
bx 1
bz 0
bx /
bx .
0-
0,
bx +
bx *
x)
1(
bx '
bx &
bz %
bx $
x#
bx "
x!
$end
#10000
b100 e
b0 f
b100 V
b100 Z"
b100 g"
b100 Y
b100 <"
b100 Y"
b100 X
b100 k
b100 ;"
b100 W
b100 ^
b100 j
b100 g
b0 U
b0 l
b0 :"
b0 T
b0 _
b0 i
b0 h
b100000000000000000000 z"
1,
#15000
1I"
0E
0F
b0 +
b0 4
b0 ]
b0 {
b0 3"
b0 f"
b0 n"
b0 o"
b0 s"
b0 p"
b0 q"
bx '
bx 2
bx O
bx c"
bx v"
b0 [
b0 9"
b0 X"
b0 Q
b0 n
b0 >"
b0 |
b0 8"
b0 >
b0 ^"
b0 i"
b0 "
b0 .
b0 ?
b0 a
b0 J"
b0 S"
b0 ]"
b0 R"
b0 Q"
b100 P
b100 y
b100 %"
b100 ?"
b100 P"
b10 8
b10 `"
b10 j"
b10 r"
b10 9
b10 F"
b10 _"
b10 :
b10 q
b10 &"
b10 7"
b10 E"
1;
1<
1=
b1 5
b1 b"
b1 k"
b1 6
b1 H"
b1 a"
b1 7
b1 p
b1 '"
b1 G"
0K"
1z
b0 L"
b0 O"
b0 M"
b0 N"
z#
z!
0G
b0 w
b0 R
b0 m
b0 ="
b0 ~
b0 0"
b0 s
b0 ."
b0 }
b0 1"
b0 6"
b0 r
b0 /"
b111 t
b111 2"
b10011 @
b10011 \"
b10011 h"
b10011 A
b10011 D"
b10011 ["
b10011 B
b10011 u
b10011 C"
b10011 V"
b110 M
b110 x
b110 @"
b110 U"
b110 $"
b0 #"
b10011 ""
b110 +"
b10011 )"
b110001110010011 H
b110001110010011 `
b110001110010011 o
b110001110010011 !"
b110001110010011 ("
b110001110010011 $
b110001110010011 /
b110001110010011 K
b110001110010011 b
b110001110010011 u"
b0 %
b0 0
b0 L
b0 d
b0 t"
0(
1-
#20000
0,
#30000
b1 +
b1 4
b1 ]
b1 {
b1 3"
b1 f"
b1 n"
b1 o"
b1 s"
0I"
b1 p"
b1 q"
b1 >
b1 ^"
b1 i"
b1 "
b1 .
b1 ?
b1 a
b1 J"
b1 S"
b1 ]"
b1 R"
b1 L"
b1 O"
b1 I
b1 c
b1 B"
b1 J
b1 v
b1 *"
b1 A"
b1 ,"
b1 w
b1 r
b1 /"
b101 t
b101 2"
b100000110001010010011 H
b100000110001010010011 `
b100000110001010010011 o
b100000110001010010011 !"
b100000110001010010011 ("
b100000110001010010011 $
b100000110001010010011 /
b100000110001010010011 K
b100000110001010010011 b
b100000110001010010011 u"
b100 %
b100 0
b100 L
b100 d
b100 t"
b1000 e
b110 f
b1000 V
b1000 Z"
b1000 g"
b1000 Y
b1000 <"
b1000 Y"
b1000 X
b1000 k
b1000 ;"
b1000 W
b1000 ^
b1000 j
b1000 g
b100 U
b100 l
b100 :"
b100 T
b100 _
b100 i
b100 h
b100000 5"
b10000000000000000000000000000011 4"
1,
#40000
0,
#50000
b1010 +
b1010 4
b1010 ]
b1010 {
b1010 3"
b1010 f"
b1010 n"
b1010 o"
b1010 s"
b1010 p"
b1010 q"
b1010 >
b1010 ^"
b1010 i"
b1010 "
b1010 .
b1010 ?
b1010 a
b1010 J"
b1010 S"
b1010 ]"
b1010 R"
b1010 L"
b1010 O"
b1010 I
b1010 c
b1010 B"
b1010 J
b1010 v
b1010 *"
b1010 A"
b1010 ,"
b1010 w
b1010 r
b1010 /"
b1100 t
b1100 2"
b101000000110011000010011 H
b101000000110011000010011 `
b101000000110011000010011 o
b101000000110011000010011 !"
b101000000110011000010011 ("
b101000000110011000010011 $
b101000000110011000010011 /
b101000000110011000010011 K
b101000000110011000010011 b
b101000000110011000010011 u"
b1000 %
b1000 0
b1000 L
b1000 d
b1000 t"
b1100 e
b11100 f
b1100 V
b1100 Z"
b1100 g"
b1100 Y
b1100 <"
b1100 Y"
b1100 X
b1100 k
b1100 ;"
b1100 W
b1100 ^
b1100 j
b1100 g
b1000 U
b1000 l
b1000 :"
b1000 T
b1000 _
b1000 i
b1000 h
b100000 5"
1,
#60000
0,
#70000
b0 +
b0 4
b0 ]
b0 {
b0 3"
b0 f"
b0 n"
b0 o"
b0 s"
1I"
b0 p"
b0 q"
b0 >
b0 ^"
b0 i"
b0 "
b0 .
b0 ?
b0 a
b0 J"
b0 S"
b0 ]"
b0 R"
b0 L"
b0 O"
b0 I
b0 c
b0 B"
b0 J
b0 v
b0 *"
b0 A"
b0 ,"
b0 w
b0 r
b0 /"
b1010 t
b1010 2"
b110010100010011 H
b110010100010011 `
b110010100010011 o
b110010100010011 !"
b110010100010011 ("
b110010100010011 $
b110010100010011 /
b110010100010011 K
b110010100010011 b
b110010100010011 u"
b1100 %
b1100 0
b1100 L
b1100 d
b1100 t"
b10000 e
b1100 f
b10000 V
b10000 Z"
b10000 g"
b10000 Y
b10000 <"
b10000 Y"
b10000 X
b10000 k
b10000 ;"
b10000 W
b10000 ^
b10000 j
b10000 g
b1100 U
b1100 l
b1100 :"
b1100 T
b1100 _
b1100 i
b1100 h
b100000 5"
1,
#80000
0,
#90000
b1 +
b1 4
b1 ]
b1 {
b1 3"
b1 f"
b1 n"
b1 o"
b1 s"
0I"
b1 p"
b1 q"
b1 >
b1 ^"
b1 i"
b1 "
b1 .
b1 ?
b1 a
b1 J"
b1 S"
b1 ]"
b1 Q"
b0 P
b0 y
b0 %"
b0 ?"
b0 P"
b1 M"
b1 N"
b1010 w
b1 R
b1 m
b1 ="
b1 ~
b1 0"
b101 s
b101 ."
b1010 r
b1010 /"
b110011 @
b110011 \"
b110011 h"
b110011 A
b110011 D"
b110011 ["
b110011 B
b110011 u
b110011 C"
b110011 V"
b0 M
b0 x
b0 @"
b0 U"
b0 $"
b110011 ""
b0 +"
b110011 )"
b101000101000010100110011 H
b101000101000010100110011 `
b101000101000010100110011 o
b101000101000010100110011 !"
b101000101000010100110011 ("
b101000101000010100110011 $
b101000101000010100110011 /
b101000101000010100110011 K
b101000101000010100110011 b
b101000101000010100110011 u"
b10000 %
b10000 0
b10000 L
b10000 d
b10000 t"
b10100 e
b10000 f
b10100 V
b10100 Z"
b10100 g"
b10100 Y
b10100 <"
b10100 Y"
b10100 X
b10100 k
b10100 ;"
b10100 W
b10100 ^
b10100 j
b10100 g
b10000 U
b10000 l
b10000 :"
b10000 T
b10000 _
b10000 i
b10000 h
b100000 5"
1,
#100000
0,
#110000
1I"
b0 Q"
b1 *
b1 3
b1 Z
b1 d"
b1 w"
b0 '
b0 2
b0 O
b0 c"
b0 v"
b0 +
b0 4
b0 ]
b0 {
b0 3"
b0 f"
b0 n"
0)
b0 o"
b0 s"
0z
b0 M"
b0 N"
1!
b0 p"
b0 q"
b0 R
b0 m
b0 ="
b0 ~
b0 0"
b111 s
b111 ."
b0 t
b0 2"
b100011 @
b100011 \"
b100011 h"
b100011 A
b100011 D"
b100011 ["
b100011 B
b100011 u
b100011 C"
b100011 V"
b10 M
b10 x
b10 @"
b10 U"
b10 $"
b100011 ""
b10 +"
b100011 )"
b0 >
b0 ^"
b0 i"
b0 "
b0 .
b0 ?
b0 a
b0 J"
b0 S"
b0 ]"
b0 R"
b101000111010000000100011 H
b101000111010000000100011 `
b101000111010000000100011 o
b101000111010000000100011 !"
b101000111010000000100011 ("
b101000111010000000100011 $
b101000111010000000100011 /
b101000111010000000100011 K
b101000111010000000100011 b
b101000111010000000100011 u"
b0 L"
b0 O"
b10100 %
b10100 0
b10100 L
b10100 d
b10100 t"
b11000 e
b1 [
b1 9"
b1 X"
b1 Q
b1 n
b1 >"
b1 |
b1 8"
b10100 f
b11000 V
b11000 Z"
b11000 g"
b11000 Y
b11000 <"
b11000 Y"
b11000 X
b11000 k
b11000 ;"
b11000 W
b11000 ^
b11000 j
b11000 g
b10100 U
b10100 l
b10100 :"
b10100 T
b10100 _
b10100 i
b10100 h
b1 }
b1 1"
b1 6"
b100000 5"
1,
#120000
0,
#130000
b1 R"
b10 +
b10 4
b10 ]
b10 {
b10 3"
b10 f"
b10 n"
b10 o"
b10 s"
b1 L"
b1 O"
0I"
b1 I
b1 c
b1 B"
b1 J
b1 v
b1 *"
b1 A"
b10 p"
b10 q"
b10 >
b10 ^"
b10 i"
b10 "
b10 .
b10 ?
b10 a
b10 J"
b10 S"
b10 ]"
b1 Q"
b1 ,"
bx '
bx 2
bx O
bx c"
bx v"
x)
bx *
bx 3
bx Z
bx d"
bx w"
1z
b1 M"
b1 N"
b0 [
b0 9"
b0 X"
b0 Q
b0 n
b0 >"
b0 |
b0 8"
z!
b1 w
b1 R
b1 m
b1 ="
b1 ~
b1 0"
b101 s
b101 ."
b0 }
b0 1"
b0 6"
b1 r
b1 /"
b101 t
b101 2"
b10011 @
b10011 \"
b10011 h"
b10011 A
b10011 D"
b10011 ["
b10011 B
b10011 u
b10011 C"
b10011 V"
b0 M
b0 x
b0 @"
b0 U"
b0 $"
b10011 ""
b0 +"
b10011 )"
b100101000001010010011 H
b100101000001010010011 `
b100101000001010010011 o
b100101000001010010011 !"
b100101000001010010011 ("
b100101000001010010011 $
b100101000001010010011 /
b100101000001010010011 K
b100101000001010010011 b
b100101000001010010011 u"
b11000 %
b11000 0
b11000 L
b11000 d
b11000 t"
b11100 e
b11010 f
b11100 V
b11100 Z"
b11100 g"
b11100 Y
b11100 <"
b11100 Y"
b11100 X
b11100 k
b11100 ;"
b11100 W
b11100 ^
b11100 j
b11100 g
b11000 U
b11000 l
b11000 :"
b11000 T
b11000 _
b11000 i
b11000 h
b10000000000000000000000000000011 y"
1,
#140000
0,
#150000
b100 R"
b100 L"
b100 O"
b100 I
b100 c
b100 B"
b100 J
b100 v
b100 *"
b100 A"
b100 ,"
b100 +
b100 4
b100 ]
b100 {
b100 3"
b100 f"
b100 n"
b100 o"
b100 s"
b100 w
b111 s
b111 ."
b100 r
b100 /"
b111 t
b111 2"
b100 p"
b100 q"
b10000111000001110010011 H
b10000111000001110010011 `
b10000111000001110010011 o
b10000111000001110010011 !"
b10000111000001110010011 ("
b10000111000001110010011 $
b10000111000001110010011 /
b10000111000001110010011 K
b10000111000001110010011 b
b10000111000001110010011 u"
b100 >
b100 ^"
b100 i"
b100 "
b100 .
b100 ?
b100 a
b100 J"
b100 S"
b100 ]"
b0 Q"
b11100 %
b11100 0
b11100 L
b11100 d
b11100 t"
b100000 e
b0 M"
b0 N"
b100100 f
b100000 V
b100000 Z"
b100000 g"
b100000 Y
b100000 <"
b100000 Y"
b100000 X
b100000 k
b100000 ;"
b100000 W
b100000 ^
b100000 j
b100000 g
b11100 U
b11100 l
b11100 :"
b11100 T
b11100 _
b11100 i
b11100 h
b0 R
b0 m
b0 ="
b0 ~
b0 0"
b100000 5"
1,
#160000
0,
#170000
1S
b1 l"
1C
1D
1E
1F
b111111111111111111111111111111000 T"
b11111111111111111111111111111000 I
b11111111111111111111111111111000 c
b11111111111111111111111111111000 B"
b11111111111111111111111111111000 J
b11111111111111111111111111111000 v
b11111111111111111111111111111000 *"
b11111111111111111111111111111000 A"
b1010 R"
b1 P
b1 y
b1 %"
b1 ?"
b1 P"
b111111111000 ,"
b11111111111111111111111111111000 +
b11111111111111111111111111111000 4
b11111111111111111111111111111000 ]
b11111111111111111111111111111000 {
b11111111111111111111111111111000 3"
b11111111111111111111111111111000 f"
b11111111111111111111111111111000 n"
1K"
0z
b1010 L"
b1010 O"
b11111111111111111111111111111000 o"
b11111111111111111111111111111000 s"
b1010 [
b1010 9"
b1010 X"
b1010 Q
b1010 n
b1010 >"
b1010 |
b1010 8"
b111111101100 w
b101 s
b101 ."
b1010 }
b1010 1"
b1010 6"
b1100 r
b1100 /"
b10001 t
b10001 2"
b1100011 @
b1100011 \"
b1100011 h"
b1100011 A
b1100011 D"
b1100011 ["
b1100011 B
b1100011 u
b1100011 C"
b1100011 V"
b100 M
b100 x
b100 @"
b100 U"
b100 $"
b1111111 #"
b1100011 ""
b100 +"
b1100011 )"
b11111111111111111111111111111000 p"
b11111111111111111111111111111000 q"
b11111110110000101100100011100011 H
b11111110110000101100100011100011 `
b11111110110000101100100011100011 o
b11111110110000101100100011100011 !"
b11111110110000101100100011100011 ("
b11111110110000101100100011100011 $
b11111110110000101100100011100011 /
b11111110110000101100100011100011 K
b11111110110000101100100011100011 b
b11111110110000101100100011100011 u"
b11111111111111111111111111111000 >
b11111111111111111111111111111000 ^"
b11111111111111111111111111111000 i"
b11111111111111111111111111111000 "
b11111111111111111111111111111000 .
b11111111111111111111111111111000 ?
b11111111111111111111111111111000 a
b11111111111111111111111111111000 J"
b11111111111111111111111111111000 S"
b11111111111111111111111111111000 ]"
b10 Q"
b100000 %
b100000 0
b100000 L
b100000 d
b100000 t"
b10000 e
b10 M"
b10 N"
b10000 f
b100100 V
b100100 Z"
b100100 g"
b100100 Y
b100100 <"
b100100 Y"
b100100 X
b100100 k
b100100 ;"
b100100 W
b100100 ^
b100100 j
b100100 g
b100000 U
b100000 l
b100000 :"
b100000 T
b100000 _
b100000 i
b100000 h
b10 R
b10 m
b10 ="
b10 ~
b10 0"
b100000 5"
1,
#180000
0,
#190000
b11 +
b11 4
b11 ]
b11 {
b11 3"
b11 f"
b11 n"
b11 o"
b11 s"
0E
0F
b0 I
b0 c
b0 B"
b0 J
b0 v
b0 *"
b0 A"
b11 p"
b11 q"
b11 >
b11 ^"
b11 i"
b11 "
b11 .
b11 ?
b11 a
b11 J"
b11 S"
b11 ]"
b1 R"
0S
b0 P
b0 y
b0 %"
b0 ?"
b0 P"
b0 ,"
0K"
b1 L"
b1 O"
1z
b1 [
b1 9"
b1 X"
b1 Q
b1 n
b1 >"
b1 |
b1 8"
b1010 w
b1 }
b1 1"
b1 6"
b1010 r
b1010 /"
b1010 t
b1010 2"
b110011 @
b110011 \"
b110011 h"
b110011 A
b110011 D"
b110011 ["
b110011 B
b110011 u
b110011 C"
b110011 V"
b0 M
b0 x
b0 @"
b0 U"
b0 $"
b0 #"
b110011 ""
b0 +"
b110011 )"
b101000101000010100110011 H
b101000101000010100110011 `
b101000101000010100110011 o
b101000101000010100110011 !"
b101000101000010100110011 ("
b101000101000010100110011 $
b101000101000010100110011 /
b101000101000010100110011 K
b101000101000010100110011 b
b101000101000010100110011 u"
b10100 e
b10000 %
b10000 0
b10000 L
b10000 d
b10000 t"
b10000 f
b10100 V
b10100 Z"
b10100 g"
b10100 Y
b10100 <"
b10100 Y"
b10100 X
b10100 k
b10100 ;"
b10100 W
b10100 ^
b10100 j
b10100 g
b10000 U
b10000 l
b10000 :"
b10000 T
b10000 _
b10000 i
b10000 h
1,
#200000
0,
#210000
b100 Q"
b11 *
b11 3
b11 Z
b11 d"
b11 w"
b100 '
b100 2
b100 O
b100 c"
b100 v"
b100 +
b100 4
b100 ]
b100 {
b100 3"
b100 f"
b100 n"
0)
b100 o"
b100 s"
0z
b100 M"
b100 N"
1!
b100 p"
b100 q"
b100 R
b100 m
b100 ="
b100 ~
b100 0"
b111 s
b111 ."
b0 t
b0 2"
b100011 @
b100011 \"
b100011 h"
b100011 A
b100011 D"
b100011 ["
b100011 B
b100011 u
b100011 C"
b100011 V"
b10 M
b10 x
b10 @"
b10 U"
b10 $"
b100011 ""
b10 +"
b100011 )"
b100 >
b100 ^"
b100 i"
b100 "
b100 .
b100 ?
b100 a
b100 J"
b100 S"
b100 ]"
b0 R"
b101000111010000000100011 H
b101000111010000000100011 `
b101000111010000000100011 o
b101000111010000000100011 !"
b101000111010000000100011 ("
b101000111010000000100011 $
b101000111010000000100011 /
b101000111010000000100011 K
b101000111010000000100011 b
b101000111010000000100011 u"
b0 L"
b0 O"
b10100 %
b10100 0
b10100 L
b10100 d
b10100 t"
b11000 e
b11 [
b11 9"
b11 X"
b11 Q
b11 n
b11 >"
b11 |
b11 8"
b10100 f
b11000 V
b11000 Z"
b11000 g"
b11000 Y
b11000 <"
b11000 Y"
b11000 X
b11000 k
b11000 ;"
b11000 W
b11000 ^
b11000 j
b11000 g
b10100 U
b10100 l
b10100 :"
b10100 T
b10100 _
b10100 i
b10100 h
b11 }
b11 1"
b11 6"
b100000 5"
1,
#220000
0,
#230000
b1 R"
b11 +
b11 4
b11 ]
b11 {
b11 3"
b11 f"
b11 n"
b11 o"
b11 s"
b1 L"
b1 O"
b1 I
b1 c
b1 B"
b1 J
b1 v
b1 *"
b1 A"
b11 p"
b11 q"
b11 >
b11 ^"
b11 i"
b11 "
b11 .
b11 ?
b11 a
b11 J"
b11 S"
b11 ]"
b10 Q"
b1 ,"
bx '
bx 2
bx O
bx c"
bx v"
x)
bx *
bx 3
bx Z
bx d"
bx w"
1z
b10 M"
b10 N"
b0 [
b0 9"
b0 X"
b0 Q
b0 n
b0 >"
b0 |
b0 8"
z!
b1 w
b10 R
b10 m
b10 ="
b10 ~
b10 0"
b101 s
b101 ."
b0 }
b0 1"
b0 6"
b1 r
b1 /"
b101 t
b101 2"
b10011 @
b10011 \"
b10011 h"
b10011 A
b10011 D"
b10011 ["
b10011 B
b10011 u
b10011 C"
b10011 V"
b0 M
b0 x
b0 @"
b0 U"
b0 $"
b10011 ""
b0 +"
b10011 )"
b100101000001010010011 H
b100101000001010010011 `
b100101000001010010011 o
b100101000001010010011 !"
b100101000001010010011 ("
b100101000001010010011 $
b100101000001010010011 /
b100101000001010010011 K
b100101000001010010011 b
b100101000001010010011 u"
b11000 %
b11000 0
b11000 L
b11000 d
b11000 t"
b11100 e
b11010 f
b11100 V
b11100 Z"
b11100 g"
b11100 Y
b11100 <"
b11100 Y"
b11100 X
b11100 k
b11100 ;"
b11100 W
b11100 ^
b11100 j
b11100 g
b11000 U
b11000 l
b11000 :"
b11000 T
b11000 _
b11000 i
b11000 h
1,
#240000
0,
