Complete_Pipeline/waveform.vcd
$date
	Sun Nov 19 21:42:58 2023
$end
$version
	Icarus Verilog
$end
$timescale
	1ps
$end
$scope module top_module_tb $end
$var wire 1 ! wr $end
$var wire 32 " result [31:0] $end
$var wire 1 # rd $end
$var wire 32 $ i_data [31:0] $end
$var wire 32 % i_addr [31:0] $end
$var wire 32 & d_data [31:0] $end
$var wire 32 ' d_addr [31:0] $end
$var wire 1 ( cs_i_n $end
$var wire 1 ) cs_d_n $end
$var wire 32 * Data_write [31:0] $end
$var wire 32 + DataOut_WB [31:0] $end
$var reg 1 , clk $end
$var reg 1 - rst_n $end
$scope module DUT $end
$var wire 1 , clk $end
$var wire 1 - rst_n $end
$var wire 1 ! wr $end
$var wire 32 . result [31:0] $end
$var wire 1 # rd $end
$var wire 32 / i_data [31:0] $end
$var wire 32 0 i_addr [31:0] $end
$var wire 32 1 d_data [31:0] $end
$var wire 32 2 d_addr [31:0] $end
$var wire 1 ( cs_i_n $end
$var wire 1 ) cs_d_n $end
$var wire 32 3 Data_write [31:0] $end
$var wire 32 4 DataOut_WB [31:0] $end
$scope module M0 $end
$var wire 1 , clk $end
$var wire 1 - rst_n $end
$var wire 1 ! wr $end
$var wire 2 5 wos_MEM [1:0] $end
$var wire 2 6 wos_EX [1:0] $end
$var wire 2 7 wos [1:0] $end
$var wire 2 8 whb_MEM [1:0] $end
$var wire 2 9 whb_EX [1:0] $end
$var wire 2 : whb [1:0] $end
$var wire 1 ; su_MEM $end
$var wire 1 < su_EX $end
$var wire 1 = su $end
$var wire 32 > result_MEM [31:0] $end
$var wire 32 ? result [31:0] $end
$var wire 1 # rd $end
$var wire 7 @ opcode_MEM [6:0] $end
$var wire 7 A opcode_EX [6:0] $end
$var wire 7 B opcode [6:0] $end
$var wire 1 C ltu_MEM $end
$var wire 1 D ltu $end
$var wire 1 E lt_MEM $end
$var wire 1 F lt $end
$var wire 1 G jalr $end
$var wire 32 H instrCode [31:0] $end
$var wire 32 I immOut_EX [31:0] $end
$var wire 32 J immOut [31:0] $end
$var wire 32 K i_data [31:0] $end
$var wire 32 L i_addr [31:0] $end
$var wire 3 M func3 [2:0] $end
$var wire 32 N d_data [31:0] $end
$var wire 32 O d_addr [31:0] $end
$var wire 1 ( cs_i_n $end
$var wire 1 ) cs_d_n $end
$var wire 4 P alu_ctrl [3:0] $end
$var wire 32 Q Read2 [31:0] $end
$var wire 32 R Read1 [31:0] $end
$var wire 1 S PC_src $end
$var wire 32 T PC_IF [31:0] $end
$var wire 32 U PC_ID [31:0] $end
$var wire 32 V PC_4_MEM [31:0] $end
$var wire 32 W PC_4_IF [31:0] $end
$var wire 32 X PC_4_ID [31:0] $end
$var wire 32 Y PC_4_EX [31:0] $end
$var wire 32 Z Data_write [31:0] $end
$var wire 32 [ Data_store [31:0] $end
$var wire 32 \ Data_out_MEM [31:0] $end
$var wire 32 ] DataOut_WB [31:0] $end
$scope module M0 $end
$var wire 32 ^ PC_4_IF [31:0] $end
$var wire 32 _ PC_IF [31:0] $end
$var wire 1 , clk $end
$var wire 32 ` instrCode [31:0] $end
$var wire 1 - rst $end
$var wire 32 a result_EX [31:0] $end
$var wire 1 G jalr $end
$var wire 32 b instr_read [31:0] $end
$var wire 32 c immOut_EX [31:0] $end
$var wire 32 d i_addr [31:0] $end
$var wire 1 ( cs_i_n $end
$var wire 1 S PC_src $end
$var wire 32 e PC_next [31:0] $end
$var wire 32 f PC_imm [31:0] $end
$var wire 32 g PC_4 [31:0] $end
$var reg 32 h PC [31:0] $end
$upscope $end
$scope module M1 $end
$var wire 32 i PC [31:0] $end
$var wire 32 j PC_4 [31:0] $end
$var wire 32 k PC_4_ID [31:0] $end
$var wire 32 l PC_ID [31:0] $end
$var wire 32 m Read1 [31:0] $end
$var wire 32 n Read2 [31:0] $end
$var wire 1 , clk $end
$var wire 32 o instrCode [31:0] $end
$var wire 1 - rst $end
$var wire 2 p wos [1:0] $end
$var wire 2 q whb [1:0] $end
$var wire 1 = su $end
$var wire 5 r rs2 [4:0] $end
$var wire 5 s rs1 [4:0] $end
$var wire 5 t rd [4:0] $end
$var wire 7 u opcode [6:0] $end
$var wire 32 v immOut [31:0] $end
$var wire 12 w imm [11:0] $end
$var wire 3 x func3 [2:0] $end
$var wire 4 y alu_ctrl [3:0] $end
$var wire 1 z RegWrite $end
$var wire 32 { Data_WB [31:0] $end
$var wire 32 | B_ext [31:0] $end
$var wire 32 } B [31:0] $end
$var wire 32 ~ A [31:0] $end
$scope module CONTROL_UNIT $end
$var wire 32 !" instr [31:0] $end
$var wire 7 "" opcode [6:0] $end
$var wire 7 #" func7 [6:0] $end
$var wire 3 $" func3 [2:0] $end
$var reg 4 %" alu_ctrl [3:0] $end
$var reg 1 = su $end
$var reg 2 &" whb [1:0] $end
$var reg 2 '" wos [1:0] $end
$upscope $end
$scope module IMM_GEN $end
$var wire 32 (" instr [31:0] $end
$var wire 7 )" opcode [6:0] $end
$var wire 32 *" immOut [31:0] $end
$var wire 3 +" func3 [2:0] $end
$var reg 12 ," imm [11:0] $end
$var reg 20 -" imm_j_u [19:0] $end
$upscope $end
$scope module REG_FILE $end
$var wire 5 ." ReadAddr1 [4:0] $end
$var wire 5 /" ReadAddr2 [4:0] $end
$var wire 32 0" ReadData1 [31:0] $end
$var wire 32 1" ReadData2 [31:0] $end
$var wire 1 z RegWrite $end
$var wire 5 2" WriteAddr [4:0] $end
$var wire 1 , clk $end
$var wire 1 - rst $end
$var wire 32 3" WriteData [31:0] $end
$var integer 32 4" fd [31:0] $end
$var integer 32 5" i [31:0] $end
$upscope $end
$scope module STORE_WHB $end
$var wire 32 6" data [31:0] $end
$var wire 2 7" whb [1:0] $end
$var wire 32 8" data_op [31:0] $end
$upscope $end
$upscope $end
$scope module M2 $end
$var wire 32 9" Data_store [31:0] $end
$var wire 32 :" PC [31:0] $end
$var wire 32 ;" PC_4 [31:0] $end
$var wire 32 <" PC_4_EX [31:0] $end
$var wire 32 =" Read1 [31:0] $end
$var wire 32 >" Read2 [31:0] $end
$var wire 4 ?" alu_ctrl [3:0] $end
$var wire 1 , clk $end
$var wire 3 @" func3 [2:0] $end
$var wire 32 A" immOut [31:0] $end
$var wire 32 B" immOut_EX [31:0] $end
$var wire 7 C" opcode [6:0] $end
$var wire 7 D" opcode_EX [6:0] $end
$var wire 1 - rst $end
$var wire 1 = su $end
$var wire 1 < su_EX $end
$var wire 2 E" whb [1:0] $end
$var wire 2 F" whb_EX [1:0] $end
$var wire 2 G" wos [1:0] $end
$var wire 2 H" wos_EX [1:0] $end
$var wire 1 I" zero $end
$var wire 32 J" result [31:0] $end
$var wire 1 D ltu $end
$var wire 1 F lt $end
$var wire 1 G jalr $end
$var wire 1 K" boj $end
$var wire 1 S PC_src $end
$var wire 32 L" Bi [31:0] $end
$var wire 32 M" Ai [31:0] $end
$scope module ALU $end
$var wire 32 N" A [31:0] $end
$var wire 32 O" B [31:0] $end
$var wire 4 P" alu_ctrl [3:0] $end
$var wire 1 I" zero $end
$var wire 1 D ltu $end
$var wire 1 F lt $end
$var reg 33 Q" AU [32:0] $end
$var reg 33 R" BU [32:0] $end
$var reg 32 S" result [31:0] $end
$var reg 33 T" resultu [32:0] $end
$upscope $end
$scope module BRANCH_JUMP $end
$var wire 1 K" boj $end
$var wire 3 U" func3 [2:0] $end
$var wire 1 F lt $end
$var wire 1 D ltu $end
$var wire 7 V" opcode [6:0] $end
$var wire 1 I" zero $end
$var reg 1 S PC_src $end
$upscope $end
$upscope $end
$scope module M3 $end
$var wire 32 W" Data_out_MEM [31:0] $end
$var wire 32 X" Data_store [31:0] $end
$var wire 32 Y" PC_4 [31:0] $end
$var wire 32 Z" PC_4_MEM [31:0] $end
$var wire 1 , clk $end
$var wire 1 F lt $end
$var wire 1 E lt_MEM $end
$var wire 1 D ltu $end
$var wire 1 C ltu_MEM $end
$var wire 7 [" opcode [6:0] $end
$var wire 7 \" opcode_MEM [6:0] $end
$var wire 32 ]" result [31:0] $end
$var wire 32 ^" result_MEM [31:0] $end
$var wire 1 - rst $end
$var wire 1 < su $end
$var wire 1 ; su_MEM $end
$var wire 2 _" whb [1:0] $end
$var wire 2 `" whb_MEM [1:0] $end
$var wire 2 a" wos [1:0] $end
$var wire 2 b" wos_MEM [1:0] $end
$var wire 1 ! wr $end
$var wire 1 # rd $end
$var wire 32 c" d_addr [31:0] $end
$var wire 1 ) cs_d_n $end
$var wire 32 d" Data_write [31:0] $end
$var wire 32 e" Data_read [31:0] $end
$upscope $end
$scope module M4 $end
$var wire 32 f" DataOut_WB [31:0] $end
$var wire 32 g" PC_4 [31:0] $end
$var wire 1 , clk $end
$var wire 1 E lt $end
$var wire 1 C ltu $end
$var wire 7 h" opcode [6:0] $end
$var wire 32 i" result [31:0] $end
$var wire 1 - rst $end
$var wire 1 ; su $end
$var wire 2 j" whb [1:0] $end
$var wire 2 k" wos [1:0] $end
$var wire 32 l" set [31:0] $end
$var wire 32 m" read_data [31:0] $end
$var wire 32 n" WriteData_ext_set [31:0] $end
$var wire 32 o" WriteData_ext [31:0] $end
$var wire 32 p" WriteBackData [31:0] $end
$scope module SIGNEXT $end
$var wire 32 q" data [31:0] $end
$var wire 1 ; su $end
$var wire 2 r" whb [1:0] $end
$var wire 32 s" data_op [31:0] $end
$upscope $end
$upscope $end
$upscope $end
$scope module M1 $end
$var wire 1 , clk $end
$var wire 1 ( cs_n $end
$var wire 32 t" iaddr [31:0] $end
$var wire 1 - rst $end
$var reg 32 u" instrCode [31:0] $end
$upscope $end
$scope module M2 $end
$var wire 32 v" addr [31:0] $end
$var wire 1 , clk $end
$var wire 1 ) cs_n $end
$var wire 1 # rd $end
$var wire 1 - rst $end
$var wire 1 ! wr $end
$var wire 32 w" write_data [31:0] $end
$var wire 32 x" read_data [31:0] $end
$var integer 32 y" i [31:0] $end
$upscope $end
$upscope $end
$upscope $end
$enddefinitions $end
#0
$dumpvars
b10000000000 y"
bx x"
bx w"
bx v"
bx u"
bz t"
bx s"
bx r"
bx q"
bx p"
bx o"
bx n"
bx m"
b0x l"
bx k"
bx j"
bx i"
bx h"
bx g"
bx f"
bx e"
bx d"
bx c"
bx b"
bx a"
bx `"
bx _"
bx ^"
bx ]"
bx \"
bx ["
bx Z"
bx Y"
bx X"
bx W"
bx V"
bx U"
bx T"
bx S"
bx R"
bx Q"
bx P"
bx O"
bx N"
bx M"
bx L"
xK"
bx J"
xI"
bx H"
bx G"
bx F"
bx E"
bx D"
bx C"
b0 B"
b0 A"
bx @"
bx ?"
bx >"
bx ="
bx <"
bx ;"
bx :"
bx 9"
bx 8"
bx 7"
bx 6"
bx 5"
bx 4"
bx 3"
bx 2"
bx 1"
bx 0"
bx /"
bx ."
b0 -"
b0 ,"
bx +"
b0 *"
bx )"
bx ("
bx '"
bx &"
bx %"
bx $"
bx #"
bx ""
bx !"
bx ~
bx }
bx |
bx {
xz
bx y
bx x
bx w
b0 v
bx u
bx t
bx s
bx r
bx q
bx p
bx o
bx n
bx m
bx l
bx k
bx j
bx i
bx h
bx g
bx f
bx e
bz d
b0 c
bx b
bx a
bx `
bx _
bx ^
bx ]
bx \
bx [
bx Z
bx Y
bx X
bx W
bx V
bx U
bx T
0S
bx R
bx Q
bx P
bx O
bx N
bx M
bz L
bx K
b0 J
b0 I
bx H
xG
xF
xE
xD
xC
bx B
bx A
bx @
bx ?
bx >
x=
x<
x;
bx :
bx 9
bx 8
bx 7
bx 6
bx 5
bx 4
bx 3
bx 2
bx 1
bz 0
bx /
bx .
0-
0,
bx +
bx *
x)
1(
bx '
bx &
bz %
bx $
x#
bx "
x!
$end
#10000
b100 e
b0 f
b100 V
b100 Z"
b100 g"
b100 Y
b100 <"
b100 Y"
b100 X
b100 k
b100 ;"
b100 W
b100 ^
b100 j
b100 g
b0 U
b0 l
b0 :"
b0 T
b0 _
b0 i
b0 h
b10000000000 y"
1,
#15000
b1 l"
0I"
1E
1F
b11111111111111111111111110110000 +
b11111111111111111111111110110000 4
b11111111111111111111111110110000 ]
b11111111111111111111111110110000 {
b11111111111111111111111110110000 3"
b11111111111111111111111110110000 f"
b11111111111111111111111110110000 n"
b11111111111111111111111110110000 o"
b11111111111111111111111110110000 s"
b11111111111111111111111101100000 f
b11111111111111111111111110110000 I
b11111111111111111111111110110000 c
b11111111111111111111111110110000 B"
b11111111111111111111111110110000 J
b11111111111111111111111110110000 v
b11111111111111111111111110110000 *"
b11111111111111111111111110110000 A"
b11111111111111111111111110110000 p"
b11111111111111111111111110110000 q"
bx '
bx 2
bx O
bx c"
bx v"
b0 [
b0 9"
b0 X"
b0 Q
b0 n
b0 >"
b0 |
b0 8"
b11111111111111111111111110110000 >
b11111111111111111111111110110000 ^"
b11111111111111111111111110110000 i"
b11111111111111111111111110110000 "
b11111111111111111111111110110000 .
b11111111111111111111111110110000 ?
b11111111111111111111111110110000 a
b11111111111111111111111110110000 J"
b11111111111111111111111110110000 S"
b11111111111111111111111110110000 ]"
b11111111111111111111111110110000 R"
b0 Q"
b0 P
b0 y
b0 %"
b0 ?"
b0 P"
b10 8
b10 `"
b10 j"
b10 r"
b10 9
b10 F"
b10 _"
b10 :
b10 q
b10 &"
b10 7"
b10 E"
1;
1<
1=
b1 5
b1 b"
b1 k"
b1 6
b1 H"
b1 a"
b1 7
b1 p
b1 '"
b1 G"
b111110110000 ,"
0K"
1z
b11111111111111111111111110110000 L"
b11111111111111111111111110110000 O"
b0 M"
b0 N"
z#
z!
0G
b111110110000 w
b0 R
b0 m
b0 ="
b0 ~
b0 0"
b10 s
b10 ."
b0 }
b0 1"
b0 6"
b10000 r
b10000 /"
b10 t
b10 2"
b10011 @
b10011 \"
b10011 h"
b10011 A
b10011 D"
b10011 ["
b10011 B
b10011 u
b10011 C"
b10011 V"
b0 M
b0 x
b0 @"
b0 U"
b0 $"
b1111101 #"
b10011 ""
b0 +"
b10011 )"
b11111011000000010000000100010011 H
b11111011000000010000000100010011 `
b11111011000000010000000100010011 o
b11111011000000010000000100010011 !"
b11111011000000010000000100010011 ("
b11111011000000010000000100010011 $
b11111011000000010000000100010011 /
b11111011000000010000000100010011 K
b11111011000000010000000100010011 b
b11111011000000010000000100010011 u"
b0 %
b0 0
b0 L
b0 d
b0 t"
0(
1-
#20000
0,
#30000
b1001100 R"
b1001100 L"
b1001100 O"
b1001100 I
b1001100 c
b1001100 B"
b1001100 J
b1001100 v
b1001100 *"
b1001100 A"
b1001100 ,"
b0 *
b0 3
b0 Z
b0 d"
b0 w"
b11111111111111111111111111111100 '
b11111111111111111111111111111100 2
b11111111111111111111111111111100 O
b11111111111111111111111111111100 c"
b11111111111111111111111111111100 v"
b11111111111111111111111111111100 +
b11111111111111111111111111111100 4
b11111111111111111111111111111100 ]
b11111111111111111111111111111100 {
b11111111111111111111111111111100 3"
b11111111111111111111111111111100 f"
b11111111111111111111111111111100 n"
0)
0z
b11111111111111111111111111111100 o"
b11111111111111111111111111111100 s"
1!
b1000001 w
b1 r
b1 /"
b1100 t
b1100 2"
b100011 @
b100011 \"
b100011 h"
b100011 A
b100011 D"
b100011 ["
b100011 B
b100011 u
b100011 C"
b100011 V"
b10 M
b10 x
b10 @"
b10 U"
b10 $"
b10 #"
b100011 ""
b10 +"
b100011 )"
b11111111111111111111111111111100 p"
b11111111111111111111111111111100 q"
b100000100010010011000100011 H
b100000100010010011000100011 `
b100000100010010011000100011 o
b100000100010010011000100011 !"
b100000100010010011000100011 ("
b100000100010010011000100011 $
b100000100010010011000100011 /
b100000100010010011000100011 K
b100000100010010011000100011 b
b100000100010010011000100011 u"
b11111111111111111111111111111100 >
b11111111111111111111111111111100 ^"
b11111111111111111111111111111100 i"
b11111111111111111111111111111100 "
b11111111111111111111111111111100 .
b11111111111111111111111111111100 ?
b11111111111111111111111111111100 a
b11111111111111111111111111111100 J"
b11111111111111111111111111111100 S"
b11111111111111111111111111111100 ]"
b11111111111111111111111110110000 Q"
b100 %
b100 0
b100 L
b100 d
b100 t"
b1000 e
b11111111111111111111111110110000 M"
b11111111111111111111111110110000 N"
b10011100 f
b1000 V
b1000 Z"
b1000 g"
b1000 Y
b1000 <"
b1000 Y"
b1000 X
b1000 k
b1000 ;"
b1000 W
b1000 ^
b1000 j
b1000 g
b100 U
b100 l
b100 :"
b100 T
b100 _
b100 i
b100 h
b11111111111111111111111110110000 R
b11111111111111111111111110110000 m
b11111111111111111111111110110000 ="
b11111111111111111111111110110000 ~
b11111111111111111111111110110000 0"
b100000 5"
b10000000000000000000000000000011 4"
1,
#40000
0,
#50000
b11111111111111111111111111111000 +
b11111111111111111111111111111000 4
b11111111111111111111111111111000 ]
b11111111111111111111111111111000 {
b11111111111111111111111111111000 3"
b11111111111111111111111111111000 f"
b11111111111111111111111111111000 n"
b11111111111111111111111111111000 o"
b11111111111111111111111111111000 s"
b11111111111111111111111111111000 p"
b11111111111111111111111111111000 q"
b11111111111111111111111111111000 '
b11111111111111111111111111111000 2
b11111111111111111111111111111000 O
b11111111111111111111111111111000 c"
b11111111111111111111111111111000 v"
b11111111111111111111111111111000 >
b11111111111111111111111111111000 ^"
b11111111111111111111111111111000 i"
b11111111111111111111111111111000 "
b11111111111111111111111111111000 .
b11111111111111111111111111111000 ?
b11111111111111111111111111111000 a
b11111111111111111111111111111000 J"
b11111111111111111111111111111000 S"
b11111111111111111111111111111000 ]"
b1001000 R"
b1001000 L"
b1001000 O"
b1001000 I
b1001000 c
b1001000 B"
b1001000 J
b1001000 v
b1001000 *"
b1001000 A"
b1001000 ,"
b1001000 w
b1000 r
b1000 /"
b1000 t
b1000 2"
b100100000010010010000100011 H
b100100000010010010000100011 `
b100100000010010010000100011 o
b100100000010010010000100011 !"
b100100000010010010000100011 ("
b100100000010010010000100011 $
b100100000010010010000100011 /
b100100000010010010000100011 K
b100100000010010010000100011 b
b100100000010010010000100011 u"
b1000 %
b1000 0
b1000 L
b1000 d
b1000 t"
b1100 e
b10011000 f
b1100 V
b1100 Z"
b1100 g"
b1100 Y
b1100 <"
b1100 Y"
b1100 X
b1100 k
b1100 ;"
b1100 W
b1100 ^
b1100 j
b1100 g
b1000 U
b1000 l
b1000 :"
b1000 T
b1000 _
b1000 i
b1000 h
1,
#60000
0,
#70000
b0 +
b0 4
b0 ]
b0 {
b0 3"
b0 f"
b0 n"
b0x l"
b0 o"
b0 s"
1I"
0E
0F
b0 p"
b0 q"
b0 >
b0 ^"
b0 i"
b0 "
b0 .
b0 ?
b0 a
b0 J"
b0 S"
b0 ]"
b1010000 R"
b1010000 L"
b1010000 O"
b1010000 I
b1010000 c
b1010000 B"
b1010000 J
b1010000 v
b1010000 *"
b1010000 A"
b1010000 ,"
bx *
bx 3
bx Z
bx d"
bx w"
bx '
bx 2
bx O
bx c"
bx v"
x)
1z
z!
b1010000 w
b10000 r
b10000 /"
b10011 @
b10011 \"
b10011 h"
b10011 A
b10011 D"
b10011 ["
b10011 B
b10011 u
b10011 C"
b10011 V"
b0 M
b0 x
b0 @"
b0 U"
b0 $"
b10011 ""
b0 +"
b10011 )"
b101000000010000010000010011 H
b101000000010000010000010011 `
b101000000010000010000010011 o
b101000000010000010000010011 !"
b101000000010000010000010011 ("
b101000000010000010000010011 $
b101000000010000010000010011 /
b101000000010000010000010011 K
b101000000010000010000010011 b
b101000000010000010000010011 u"
b1100 %
b1100 0
b1100 L
b1100 d
b1100 t"
b10000 e
b10101100 f
b10000 V
b10000 Z"
b10000 g"
b10000 Y
b10000 <"
b10000 Y"
b10000 X
b10000 k
b10000 ;"
b10000 W
b10000 ^
b10000 j
b10000 g
b1100 U
b1100 l
b1100 :"
b1100 T
b1100 _
b1100 i
b1100 h
1,
#80000
0,
#90000
b1 l"
1E
1F
b11111111111111111111111111101100 R"
b11111111111111111111111111101100 +
b11111111111111111111111111101100 4
b11111111111111111111111111101100 ]
b11111111111111111111111111101100 {
b11111111111111111111111111101100 3"
b11111111111111111111111111101100 f"
b11111111111111111111111111101100 n"
b11111111111111111111111111101100 o"
b11111111111111111111111111101100 s"
b11111111111111111111111111101100 L"
b11111111111111111111111111101100 O"
0I"
b11111111111111111111111111101100 I
b11111111111111111111111111101100 c
b11111111111111111111111111101100 B"
b11111111111111111111111111101100 J
b11111111111111111111111111101100 v
b11111111111111111111111111101100 *"
b11111111111111111111111111101100 A"
b11111111111111111111111111101100 p"
b11111111111111111111111111101100 q"
b11111111111111111111111111101100 >
b11111111111111111111111111101100 ^"
b11111111111111111111111111101100 i"
b11111111111111111111111111101100 "
b11111111111111111111111111101100 .
b11111111111111111111111111101100 ?
b11111111111111111111111111101100 a
b11111111111111111111111111101100 J"
b11111111111111111111111111101100 S"
b11111111111111111111111111101100 ]"
b0 Q"
b111111101100 ,"
b0 *
b0 3
b0 Z
b0 d"
b0 w"
b11111111111111111111111111101100 '
b11111111111111111111111111101100 2
b11111111111111111111111111101100 O
b11111111111111111111111111101100 c"
b11111111111111111111111111101100 v"
0)
0z
b0 M"
b0 N"
1!
b111111100000 w
b0 R
b0 m
b0 ="
b0 ~
b0 0"
b1000 s
b1000 ."
b0 r
b0 /"
b1100 t
b1100 2"
b100011 @
b100011 \"
b100011 h"
b100011 A
b100011 D"
b100011 ["
b100011 B
b100011 u
b100011 C"
b100011 V"
b10 M
b10 x
b10 @"
b10 U"
b10 $"
b1111111 #"
b100011 ""
b10 +"
b100011 )"
b11111110000001000010011000100011 H
b11111110000001000010011000100011 `
b11111110000001000010011000100011 o
b11111110000001000010011000100011 !"
b11111110000001000010011000100011 ("
b11111110000001000010011000100011 $
b11111110000001000010011000100011 /
b11111110000001000010011000100011 K
b11111110000001000010011000100011 b
b11111110000001000010011000100011 u"
b10000 %
b10000 0
b10000 L
b10000 d
b10000 t"
b10100 e
b11111111111111111111111111101000 f
b10100 V
b10100 Z"
b10100 g"
b10100 Y
b10100 <"
b10100 Y"
b10100 X
b10100 k
b10100 ;"
b10100 W
b10100 ^
b10100 j
b10100 g
b10000 U
b10000 l
b10000 :"
b10000 T
b10000 _
b10000 i
b10000 h
b100000 5"
1,
#100000
0,
#110000
b0x l"
b10010000 o"
b10010000 s"
0E
0F
b11000 +
b11000 4
b11000 ]
b11000 {
b11000 3"
b11000 f"
b11000 n"
b10010000 p"
b10010000 q"
1S
b10010000 >
b10010000 ^"
b10010000 i"
b10010000 "
b10010000 .
b10010000 ?
b10010000 a
b10010000 J"
b10010000 S"
b10010000 ]"
b1111100 R"
b10100 Q"
b10 5
b10 b"
b10 k"
b10 6
b10 H"
b10 a"
b10 7
b10 p
b10 '"
b10 G"
b1111100 -"
bx *
bx 3
bx Z
bx d"
bx w"
bx '
bx 2
bx O
bx c"
bx v"
x)
1K"
b1111100 L"
b1111100 O"
1z
b10100 M"
b10100 N"
b1111100 I
b1111100 c
b1111100 B"
b1111100 J
b1111100 v
b1111100 *"
b1111100 A"
z!
b11111000 w
b0 s
b0 ."
b11000 r
b11000 /"
b0 t
b0 2"
b1101111 @
b1101111 \"
b1101111 h"
b1101111 A
b1101111 D"
b1101111 ["
b1101111 B
b1101111 u
b1101111 C"
b1101111 V"
b0 M
b0 x
b0 @"
b0 U"
b0 $"
b111 #"
b1101111 ""
b0 +"
b1101111 )"
b1111100000000000000001101111 H
b1111100000000000000001101111 `
b1111100000000000000001101111 o
b1111100000000000000001101111 !"
b1111100000000000000001101111 ("
b1111100000000000000001101111 $
b1111100000000000000001101111 /
b1111100000000000000001101111 K
b1111100000000000000001101111 b
b1111100000000000000001101111 u"
b10100 %
b10100 0
b10100 L
b10100 d
b10100 t"
b100001100 e
b100001100 f
b11000 V
b11000 Z"
b11000 g"
b11000 Y
b11000 <"
b11000 Y"
b11000 X
b11000 k
b11000 ;"
b11000 W
b11000 ^
b11000 j
b11000 g
b10100 U
b10100 l
b10100 :"
b10100 T
b10100 _
b10100 i
b10100 h
1,
#120000
0,
#130000
b1 l"
1E
1F
b11111111111111111111111111101100 R"
0S
b1 5
b1 b"
b1 k"
b1 6
b1 H"
b1 a"
b1 7
b1 p
b1 '"
b1 G"
bx \
bx W"
bx &
bx 1
bx N
bx e"
bx m"
bx x"
b0 *
b0 3
b0 Z
b0 d"
b0 w"
b11111111111111111111111111101100 '
b11111111111111111111111111101100 2
b11111111111111111111111111101100 O
b11111111111111111111111111101100 c"
b11111111111111111111111111101100 v"
0)
0K"
b11111111111111111111111111101100 L"
b11111111111111111111111111101100 O"
b11111111111111111111111111101100 I
b11111111111111111111111111101100 c
b11111111111111111111111111101100 B"
b11111111111111111111111111101100 J
b11111111111111111111111111101100 v
b11111111111111111111111111101100 *"
b11111111111111111111111111101100 A"
bx o"
bx s"
1#
b111111101100 w
b1000 s
b1000 ."
b1100 r
b1100 /"
b1110 t
b1110 2"
b11 @
b11 \"
b11 h"
b11 A
b11 D"
b11 ["
b11 B
b11 u
b11 C"
b11 V"
b10 M
b10 x
b10 @"
b10 U"
b10 $"
b1111111 #"
b11 ""
b10 +"
b11 )"
bx p"
bx q"
b11111110110001000010011100000011 H
b11111110110001000010011100000011 `
b11111110110001000010011100000011 o
b11111110110001000010011100000011 !"
b11111110110001000010011100000011 ("
b11111110110001000010011100000011 $
b11111110110001000010011100000011 /
b11111110110001000010011100000011 K
b11111110110001000010011100000011 b
b11111110110001000010011100000011 u"
b11111111111111111111111111101100 >
b11111111111111111111111111101100 ^"
b11111111111111111111111111101100 i"
b11111111111111111111111111101100 "
b11111111111111111111111111101100 .
b11111111111111111111111111101100 ?
b11111111111111111111111111101100 a
b11111111111111111111111111101100 J"
b11111111111111111111111111101100 S"
b11111111111111111111111111101100 ]"
b0 Q"
b100010000 e
bx +
bx 4
bx ]
bx {
bx 3"
bx f"
bx n"
b100001100 %
b100001100 0
b100001100 L
b100001100 d
b100001100 t"
b0 M"
b0 N"
b11100100 f
b100010000 V
b100010000 Z"
b100010000 g"
b100010000 Y
b100010000 <"
b100010000 Y"
b100010000 X
b100010000 k
b100010000 ;"
b100010000 W
b100010000 ^
b100010000 j
b100010000 g
b100001100 U
b100001100 l
b100001100 :"
b100001100 T
b100001100 _
b100001100 i
b100001100 h
1,
#140000
0,
#150000
b0x l"
0E
0F
b1 >
b1 ^"
b1 i"
b1 "
b1 .
b1 ?
b1 a
b1 J"
b1 S"
b1 ]"
b1 R"
b1 L"
b1 O"
b1 I
b1 c
b1 B"
b1 J
b1 v
b1 *"
b1 A"
b1 ,"
b1 +
b1 4
b1 ]
b1 {
b1 3"
b1 f"
b1 n"
bx *
bx 3
bx Z
bx d"
bx w"
bx '
bx 2
bx O
bx c"
bx v"
b1 o"
b1 s"
x)
b1 p"
b1 q"
z#
b1 w
b0 s
b0 ."
b1 r
b1 /"
b1111 t
b1111 2"
b10011 @
b10011 \"
b10011 h"
b10011 A
b10011 D"
b10011 ["
b10011 B
b10011 u
b10011 C"
b10011 V"
b0 M
b0 x
b0 @"
b0 U"
b0 $"
b0 #"
b10011 ""
b0 +"
b10011 )"
b100000000011110010011 H
b100000000011110010011 `
b100000000011110010011 o
b100000000011110010011 !"
b100000000011110010011 ("
b100000000011110010011 $
b100000000011110010011 /
b100000000011110010011 K
b100000000011110010011 b
b100000000011110010011 u"
b100010000 %
b100010000 0
b100010000 L
b100010000 d
b100010000 t"
b100010100 e
b100010010 f
b100010100 V
b100010100 Z"
b100010100 g"
b100010100 Y
b100010100 <"
b100010100 Y"
b100010100 X
b100010100 k
b100010100 ;"
b100010100 W
b100010100 ^
b100010100 j
b100010100 g
b100010000 U
b100010000 l
b100010000 :"
b100010000 T
b100010000 _
b100010000 i
b100010000 h
b100000 5"
1,
#160000
0,
#170000
bx +
bx 4
bx ]
bx {
bx 3"
bx f"
bx n"
bx o"
bx s"
xI"
xE
xF
b11111111111111111111111110000010 I
b11111111111111111111111110000010 c
b11111111111111111111111110000010 B"
b11111111111111111111111110000010 J
b11111111111111111111111110000010 v
b11111111111111111111111110000010 *"
b11111111111111111111111110000010 A"
bx p"
bx q"
0S
bx >
bx ^"
bx i"
bx "
bx .
bx ?
bx a
bx J"
bx S"
bx ]"
b0xxxxxxxxxxxxxxxxxxxxxxxxxxxxxxxx R"
b1 Q"
b1 P
b1 y
b1 %"
b1 ?"
b1 P"
b111110000010 ,"
1K"
0z
bx L"
bx O"
b1 M"
b1 N"
bx [
bx 9"
bx X"
bx Q
bx n
bx >"
bx |
bx 8"
b111100001110 w
b1 R
b1 m
b1 ="
b1 ~
b1 0"
b1111 s
b1111 ."
bx }
bx 1"
bx 6"
b1110 r
b1110 /"
b101 t
b101 2"
b1100011 @
b1100011 \"
b1100011 h"
b1100011 A
b1100011 D"
b1100011 ["
b1100011 B
b1100011 u
b1100011 C"
b1100011 V"
b101 M
b101 x
b101 @"
b101 U"
b101 $"
b1111000 #"
b1100011 ""
b101 +"
b1100011 )"
b11110000111001111101001011100011 H
b11110000111001111101001011100011 `
b11110000111001111101001011100011 o
b11110000111001111101001011100011 !"
b11110000111001111101001011100011 ("
b11110000111001111101001011100011 $
b11110000111001111101001011100011 /
b11110000111001111101001011100011 K
b11110000111001111101001011100011 b
b11110000111001111101001011100011 u"
b100010100 %
b100010100 0
b100010100 L
b100010100 d
b100010100 t"
b100011000 e
b11000 f
b100011000 V
b100011000 Z"
b100011000 g"
b100011000 Y
b100011000 <"
b100011000 Y"
b100011000 X
b100011000 k
b100011000 ;"
b100011000 W
b100011000 ^
b100011000 j
b100011000 g
b100010100 U
b100010100 l
b100010100 :"
b100010100 T
b100010100 _
b100010100 i
b100010100 h
b100000 5"
1,
#180000
0,
